1,June,1
2,June,1
3,June,1
4,June,1
5,June,1
6,June,1
7,June,1
8,June,1
9,June,1
10,June,1
11,June,0
12,June,1
15,June,0
16,June,1
17,June,1
18,June,1
19,June,0
20,June,1
21,June,1
22,June,1
23,June,1
24,June,1
25,June,1
26,June,1
27,June,1
28,June,1
29,June,0
30,June,1
31,June,1
32,June,1
33,June,1
34,June,0
35,June,1
36,June,1
37,June,1
38,June,1
39,June,1
40,June,1
41,June,0
42,June,1
43,June,1
44,June,0
45,June,1
46,June,1
47,June,0
48,June,1
49,June,1
50,June,0
51,June,1
52,June,1
53,June,1
54,June,1
55,June,0
56,June,1
57,June,1
58,June,1
59,June,1
60,June,1
61,June,1
62,June,1
63,June,1
64,June,1
65,June,1
66,June,1
67,June,1
68,June,1
69,June,1
70,June,1
71,June,1
72,June,0
73,June,1
74,June,1
75,June,1
76,June,1
77,June,0
78,June,1
79,June,1
80,June,1
81,June,1
82,June,1
83,June,1
84,June,1
85,June,1
86,June,0
87,June,1
88,June,1
89,June,1
90,June,1
91,June,0
92,June,1
93,June,1
94,June,1
95,June,1
96,June,1
97,June,1
98,June,1
99,June,1
100,June,1
101,June,1
102,June,1
103,June,0
104,June,0
105,June,1
106,June,1
107,June,1
108,June,1
109,June,1
110,June,1
111,June,1
112,June,1
113,June,1
114,June,1
115,June,1
116,June,1
117,June,1
118,June,0
119,June,1
120,June,1
121,June,1
122,June,1
123,June,1
124,June,1
125,June,1
126,June,1
127,June,1
128,June,1
129,June,1
130,June,1
131,June,1
132,June,1
133,June,1
134,June,1
135,June,1
136,June,1
137,June,1
138,June,1
139,June,1
140,June,1
141,June,0
142,June,1
143,June,1
144,June,0
145,June,0
146,June,1
147,June,1
148,June,1
149,June,1
150,June,1
151,June,1
152,June,1
153,June,0
154,June,1
155,June,1
156,June,0
157,June,1
158,June,1
159,June,1
160,June,1
161,June,1
162,June,1
163,June,0
164,June,1
165,June,1
166,June,1
167,June,1
168,June,1
169,June,0
170,June,1
171,June,1
172,June,1
173,June,1
174,June,1
175,June,1
176,June,1
177,June,1
178,June,1
179,June,1
180,June,1
181,June,0
182,June,0
183,June,1
184,June,1
185,June,1
186,June,1
187,June,1
188,June,0
189,June,1
190,June,0
191,June,1
192,June,1
193,June,1
194,June,1
195,June,1
196,June,1
197,June,1
198,June,1
199,June,0
200,June,1
201,June,1
202,June,1
203,June,1
204,June,1
205,June,1
206,June,1
207,June,1
208,June,1
209,June,1
210,June,1
211,June,1
212,June,1
213,June,1
214,June,1
215,June,1
216,June,1
217,June,1
218,June,1
219,June,1
220,June,0
221,June,1
222,June,1
223,June,0
224,June,1
225,June,1
226,June,1
227,June,1
228,June,0
229,June,1
230,June,1
231,June,1
232,June,1
233,June,0
234,June,1
235,June,1
236,June,1
237,June,1
238,June,0
239,June,1
240,June,1
241,June,1
242,June,1
243,June,0
244,June,1
245,June,0
246,June,0
247,June,1
248,June,1
249,June,1
250,June,1
251,June,1
252,June,0
253,June,1
254,June,1
255,June,0
256,June,1
257,June,1
258,June,0
259,June,1
260,June,0
261,June,1
262,June,1
263,June,0
264,June,0
265,June,1
266,June,1
267,June,1
268,June,0
269,June,1
270,June,0
271,June,1
272,June,1
273,June,1
274,June,1
275,June,1
276,June,1
277,June,1
278,June,1
279,June,0
280,June,0
281,June,1
282,June,1
283,June,1
284,June,1
285,June,1
286,June,1
287,June,1
288,June,1
289,June,0
290,June,1
291,June,0
292,June,0
293,June,1
294,June,1
295,June,1
296,June,1
297,June,0
298,June,1
299,June,0
300,June,0
301,June,0
302,June,1
303,June,1
304,June,1
305,June,1
306,June,1
307,June,1
308,June,0
309,June,0
310,June,0
311,June,1
312,June,1
313,June,0
314,June,0
315,June,0
316,June,1
317,June,1
318,June,1
319,June,1
320,June,1
321,June,0
322,June,1
323,June,1
324,June,1
325,June,1
326,June,1
327,June,1
328,June,1
329,June,0
330,June,1
331,June,1
332,June,1
333,June,1
334,June,1
335,June,1
336,June,1
337,June,1
338,June,1
339,June,0
340,June,1
341,June,1
342,June,0
343,June,1
344,June,0
345,June,1
346,June,1
347,June,1
348,June,1
349,June,1
350,June,1
351,June,0
352,June,0
353,June,0
354,June,0
355,June,1
356,June,1
357,June,1
358,June,0
359,June,0
360,June,0
361,June,0
362,June,0
363,June,1
364,June,1
365,June,0
366,June,1
367,June,1
368,June,1
369,June,1
370,June,1
371,June,1
372,June,1
373,June,1
374,June,1
375,June,1
376,June,1
377,June,1
378,June,1
379,June,0
380,June,1
381,June,1
382,June,0
383,June,1
384,June,0
385,June,0
386,June,0
387,June,1
388,June,1
389,June,1
390,June,0
391,June,0
392,June,1
393,June,1
394,June,0
395,June,0
396,June,0
397,June,1
398,June,1
399,June,0
400,June,1
401,June,1
402,June,1
403,June,1
404,June,1
405,June,1
406,June,0
407,June,1
408,June,1
409,June,1
411,June,1
412,June,0
413,June,1
414,June,1
415,June,1
416,June,1
417,June,1
418,June,0
419,June,1
420,June,1
421,June,1
422,June,1
423,June,1
424,June,1
425,June,1
426,June,1
427,June,1
428,June,0
429,June,1
430,June,1
431,June,1
432,June,1
433,June,1
434,June,1
435,June,1
436,June,1
437,June,1
438,June,1
439,June,1
440,June,1
441,June,1
442,June,1
443,June,1
444,June,0
445,June,1
446,June,1
447,June,1
448,June,1
449,June,1
450,June,1
451,June,1
452,June,1
453,June,1
454,June,1
455,June,1
456,June,1
457,June,1
458,June,1
459,June,1
460,June,1
461,June,1
462,June,1
463,June,1
464,June,1
465,June,1
466,June,1
467,June,1
468,June,1
469,June,1
470,June,1
471,June,1
472,June,1
473,June,1
474,June,1
475,June,1
476,June,1
477,June,1
478,June,1
479,June,1
480,June,0
481,June,1
482,June,1
483,June,1
484,June,1
485,June,1
486,June,0
487,June,1
488,June,1
489,June,1
490,June,0
491,June,1
492,June,1
493,June,1
494,June,1
495,June,1
496,June,1
497,June,1
498,June,1
499,June,1
500,June,1
501,June,1
502,June,0
503,June,1
504,June,1
505,June,1
506,June,1
507,June,1
508,June,1
509,June,0
510,June,1
511,June,1
512,June,1
513,June,1
514,June,1
515,June,0
516,June,1
517,June,1
518,June,1
519,June,1
520,June,0
521,June,1
522,June,1
523,June,1
524,June,1
525,June,1
526,June,1
527,June,0
528,June,1
529,June,0
530,June,1
531,June,1
533,June,1
534,June,1
535,June,0
536,June,1
537,June,1
538,June,1
539,June,1
540,June,0
541,June,1
542,June,1
543,June,1
544,June,1
545,June,1
546,June,1
547,June,1
548,June,0
549,June,1
550,June,1
551,June,1
552,June,1
553,June,1
554,June,1
555,June,1
556,June,1
557,June,1
558,June,1
559,June,1
560,June,0
561,June,0
562,June,0
563,June,1
564,June,1
565,June,1
566,June,1
567,June,0
568,June,1
569,June,1
570,June,1
571,June,0
572,June,1
573,June,1
574,June,1
575,June,1
576,June,1
577,June,1
578,June,1
579,June,1
580,June,1
581,June,1
582,June,1
583,June,1
584,June,0
585,June,1
586,June,1
587,June,1
588,June,1
589,June,1
590,June,1
591,June,1
592,June,1
593,June,1
594,June,1
595,June,1
596,June,0
597,June,1
598,June,1
599,June,1
600,June,1
601,June,1
602,June,1
603,June,1
604,June,1
605,June,0
606,June,1
607,June,1
608,June,1
609,June,1
610,June,0
611,June,1
612,June,1
613,June,1
614,June,1
615,June,0
616,June,0
617,June,1
618,June,0
619,June,0
620,June,1
621,June,0
622,June,1
623,June,1
624,June,1
625,June,1
626,June,1
627,June,1
628,June,1
629,June,1
630,June,1
631,June,1
632,June,1
633,June,1
634,June,1
635,June,0
636,June,0
637,June,0
638,June,1
639,June,1
641,June,1
642,June,1
643,June,1
644,June,0
645,June,1
646,June,0
647,June,1
648,June,1
649,June,0
650,June,0
651,June,0
653,June,0
654,June,1
655,June,0
656,June,1
657,June,1
658,June,1
659,June,1
660,June,1
661,June,1
662,June,1
663,June,1
664,June,1
665,June,1
666,June,1
667,June,0
668,June,1
669,June,1
670,June,1
671,June,1
672,June,1
673,June,1
675,June,1
677,June,1
678,June,1
679,June,0
680,June,1
682,June,0
683,June,0
684,June,0
686,June,1
687,June,1
688,June,1
689,June,1
691,June,0
693,June,0
695,June,1
696,June,1
698,June,1
699,June,0
700,June,0
701,June,0
702,June,1
704,June,0
705,June,1
706,June,1
708,June,0
709,June,0
712,June,1
715,June,1
716,June,1
717,June,1
718,June,0
719,June,1
720,June,0
722,June,0
723,June,0
724,June,0
725,June,1
726,June,1
728,June,1
729,June,0
730,June,1
731,June,1
732,June,1
733,June,1
734,June,1
735,June,0
736,June,1
737,June,1
738,June,1
739,June,0
740,June,0
741,June,0
742,June,0
743,June,0
744,June,0
745,June,0
746,June,0
749,June,0
750,June,0
2501,June,1
2502,June,1
2503,June,1
2504,June,1
2505,June,0
3002,June,0
3004,June,0
3006,June,0
3016,June,0
3017,June,0
3030,June,0
3079,June,0
3100,June,0
3206,June,0
3265,June,0
3281,June,0
3293,June,0
3355,June,0
3362,June,0
3404,June,0
8001,June,0
8002,June,0
4490,June,1
5990,June,1
5001,June,1
5002,June,1
5003,June,1
5004,June,0
5005,June,0
5006,June,1
5007,June,1
5008,June,0
5009,June,1
5010,June,0
5011,June,1
5012,June,0
5013,June,0
5014,June,0
5015,June,0
5016,June,0
5017,June,1
5018,June,0
5019,June,0
5020,June,1
5021,June,1
5022,June,1
5023,June,0
5024,June,0
5025,June,1
5026,June,1
5027,June,1
5028,June,0
5029,June,1
5030,June,1
5031,June,1
5032,June,1
5033,June,1
5034,June,1
5035,June,1
5036,June,0
5037,June,1
5038,June,1
5040,June,1
5041,June,0
5042,June,1
5043,June,0
5044,June,1
5045,June,1
5046,June,1
5047,June,1
5048,June,1
5049,June,1
5050,June,1
5051,June,1
5052,June,1
5053,June,1
5054,June,1
5055,June,1
5056,June,1
5057,June,1
5058,June,1
5059,June,1
5060,June,1
5061,June,1
5062,June,1
5063,June,1
5064,June,1
5065,June,1
5066,June,1
5067,June,1
5068,June,1
5069,June,1
5070,June,1
5072,June,1
5073,June,1
5074,June,1
5076,June,1
5077,June,0
5078,June,1
5079,June,0
5080,June,1
5081,June,1
5082,June,1
5083,June,1
5084,June,0
5085,June,0
5086,June,1
5087,June,1
5088,June,0
5089,June,0
5090,June,0
5091,June,1
5092,June,1
5093,June,0
5094,June,1
5095,June,1
5096,June,0
5097,June,1
5098,June,1
5099,June,1
5100,June,1
5101,June,1
5102,June,1
5103,June,0
5104,June,1
5105,June,1
5106,June,1
5107,June,0
5108,June,1
5109,June,1
5110,June,1
5112,June,1
5113,June,0
5114,June,0
5115,June,0
5116,June,0
5117,June,1
5118,June,1
5119,June,1
5120,June,0
5121,June,1
5123,June,0
5124,June,1
5125,June,1
5126,June,0
5127,June,1
5128,June,0
5129,June,1
5130,June,1
5132,June,0
5133,June,1
5134,June,1
5135,June,1
5136,June,1
5138,June,1
5139,June,1
5140,June,1
5145,June,1
5147,June,1
5151,June,0
5153,June,1
5154,June,0
5156,June,0
5157,June,1
5158,June,1
5159,June,0
5160,June,1
5161,June,1
5162,June,1
5163,June,0
5165,June,1
5166,June,0
5167,June,1
5168,June,1
5169,June,1
5171,June,1
5173,June,0
5174,June,1
5175,June,1
5176,June,1
5177,June,1
5178,June,0
5179,June,0
5181,June,1
5182,June,1
5183,June,0
5187,June,1
5192,June,1
5194,June,1
5195,June,1
5196,June,1
5197,June,1
5198,June,1
5199,June,1
5200,June,1
5201,June,1
5202,June,1
5203,June,1
5204,June,1
5205,June,1
5206,June,1
5208,June,1
5209,June,1
5210,June,1
5211,June,1
5212,June,1
5213,June,1
5214,June,0
5215,June,0
5216,June,0
5217,June,0
5218,June,0
5219,June,0
5220,June,0
5221,June,0
5223,June,0
5224,June,1
5225,June,0
5226,June,0
5227,June,0
5229,June,0
5230,June,0
5231,June,0
5232,June,0
5233,June,0
5234,June,0
5235,June,0
5237,June,0
5238,June,0
5239,June,0
5240,June,0
5241,June,0
5242,June,0
5243,June,0
5244,June,0
5245,June,0
5246,June,0
5248,June,0
5251,June,0
5252,June,0
5253,June,0
5254,June,0
5255,June,0
5256,June,0
5257,June,0
5258,June,0
5259,June,0
5260,June,0
5261,June,0
5262,June,0
5264,June,0
5265,June,0
5266,June,0
5267,June,0
5269,June,0
5270,June,0
5271,June,0
5274,June,0
5276,June,0
5277,June,0
5278,June,0
5280,June,0
5284,June,0
5285,June,0
5287,June,0
5289,June,0
5293,June,0
5294,June,0
5900,June,0
1,May,1
2,May,1
3,May,1
4,May,1
5,May,1
6,May,1
7,May,1
8,May,1
9,May,1
10,May,1
11,May,1
12,May,1
15,May,0
16,May,1
17,May,1
18,May,1
19,May,0
20,May,1
21,May,1
22,May,1
23,May,0
24,May,1
25,May,1
26,May,1
27,May,1
28,May,1
29,May,0
30,May,1
31,May,1
32,May,1
33,May,1
34,May,0
35,May,1
36,May,1
37,May,1
38,May,1
39,May,1
40,May,1
41,May,1
42,May,1
43,May,1
44,May,0
45,May,1
46,May,1
47,May,0
48,May,1
49,May,1
50,May,0
51,May,1
52,May,1
53,May,1
54,May,1
55,May,0
56,May,1
57,May,1
58,May,1
59,May,1
60,May,1
61,May,1
62,May,1
63,May,1
64,May,1
65,May,1
66,May,1
67,May,1
68,May,1
69,May,1
70,May,1
71,May,1
72,May,0
73,May,1
74,May,1
75,May,1
76,May,1
77,May,0
78,May,1
79,May,1
80,May,1
81,May,1
82,May,1
83,May,1
84,May,1
85,May,1
86,May,0
87,May,1
88,May,1
89,May,1
90,May,1
91,May,0
92,May,1
93,May,1
94,May,1
95,May,1
96,May,1
97,May,1
98,May,1
99,May,1
100,May,1
101,May,1
102,May,1
103,May,0
104,May,0
105,May,1
106,May,1
107,May,1
108,May,1
109,May,1
110,May,1
111,May,1
112,May,1
113,May,1
114,May,1
115,May,1
116,May,1
117,May,1
118,May,0
119,May,1
120,May,1
121,May,1
122,May,1
123,May,1
124,May,1
125,May,1
126,May,1
127,May,1
128,May,1
129,May,1
130,May,1
131,May,1
132,May,1
133,May,1
134,May,1
135,May,1
136,May,1
137,May,1
138,May,1
139,May,1
140,May,1
141,May,0
142,May,1
143,May,1
144,May,0
145,May,0
146,May,1
147,May,1
148,May,1
149,May,1
150,May,1
151,May,1
152,May,1
153,May,1
154,May,1
155,May,1
156,May,0
157,May,1
158,May,1
159,May,1
160,May,1
161,May,1
162,May,1
163,May,0
164,May,1
165,May,1
166,May,1
167,May,1
168,May,1
169,May,0
170,May,1
171,May,1
172,May,1
173,May,1
174,May,1
175,May,1
176,May,1
177,May,1
178,May,1
179,May,1
180,May,1
181,May,0
182,May,0
183,May,1
184,May,1
185,May,1
186,May,1
187,May,1
188,May,1
189,May,1
190,May,0
191,May,1
192,May,1
193,May,1
194,May,1
195,May,1
196,May,1
197,May,1
198,May,1
199,May,0
200,May,1
201,May,1
202,May,1
203,May,1
204,May,1
205,May,1
206,May,1
207,May,1
208,May,1
209,May,1
210,May,1
211,May,1
212,May,1
213,May,1
214,May,1
215,May,1
216,May,1
217,May,1
218,May,1
219,May,1
220,May,0
221,May,1
222,May,1
223,May,1
224,May,1
225,May,1
226,May,1
227,May,1
228,May,1
229,May,1
230,May,1
231,May,1
232,May,1
233,May,0
234,May,1
235,May,1
236,May,1
237,May,1
238,May,0
239,May,1
240,May,1
241,May,1
242,May,1
243,May,0
244,May,1
245,May,0
246,May,1
247,May,1
248,May,1
249,May,1
250,May,1
251,May,1
252,May,0
253,May,1
254,May,1
255,May,0
256,May,1
257,May,1
258,May,0
259,May,1
260,May,0
261,May,1
262,May,1
263,May,1
264,May,0
265,May,1
266,May,1
267,May,1
268,May,0
269,May,1
270,May,1
271,May,1
272,May,1
273,May,1
274,May,1
275,May,1
276,May,1
277,May,1
278,May,1
279,May,1
280,May,0
281,May,1
282,May,1
283,May,1
284,May,1
285,May,1
286,May,1
287,May,1
288,May,1
289,May,1
290,May,1
291,May,0
292,May,0
293,May,1
294,May,1
295,May,1
296,May,1
297,May,0
298,May,1
299,May,0
300,May,0
301,May,0
302,May,1
303,May,1
304,May,1
305,May,1
306,May,1
307,May,1
308,May,0
309,May,0
310,May,0
311,May,1
312,May,1
313,May,0
314,May,0
315,May,0
316,May,1
317,May,1
318,May,1
319,May,1
320,May,1
321,May,1
322,May,1
323,May,1
324,May,1
325,May,1
326,May,1
327,May,1
328,May,1
329,May,0
330,May,1
331,May,1
332,May,1
333,May,1
334,May,1
335,May,1
336,May,1
337,May,1
338,May,1
339,May,0
340,May,1
341,May,1
342,May,0
343,May,1
344,May,1
345,May,1
346,May,0
347,May,1
348,May,1
349,May,1
350,May,1
351,May,1
352,May,1
353,May,0
354,May,1
355,May,1
356,May,1
357,May,1
358,May,0
359,May,0
360,May,0
361,May,0
362,May,0
363,May,1
364,May,1
365,May,1
366,May,1
367,May,1
368,May,1
369,May,1
370,May,1
371,May,1
372,May,1
373,May,1
374,May,1
375,May,1
376,May,1
377,May,1
378,May,1
379,May,0
380,May,1
381,May,1
382,May,1
383,May,1
384,May,0
385,May,0
386,May,0
387,May,1
388,May,1
389,May,1
390,May,1
391,May,1
392,May,1
393,May,1
394,May,0
395,May,1
396,May,0
397,May,1
398,May,1
399,May,1
400,May,0
401,May,1
402,May,0
403,May,1
404,May,1
405,May,1
406,May,0
407,May,1
408,May,0
409,May,1
411,May,1
412,May,0
413,May,1
414,May,1
415,May,1
416,May,1
417,May,1
418,May,0
419,May,1
420,May,1
421,May,1
422,May,1
423,May,1
424,May,1
425,May,0
426,May,1
427,May,1
428,May,0
429,May,1
430,May,1
431,May,1
432,May,1
433,May,1
434,May,1
435,May,1
436,May,1
437,May,1
438,May,1
439,May,1
440,May,1
441,May,1
442,May,1
443,May,1
444,May,0
445,May,1
446,May,1
447,May,1
448,May,1
449,May,1
450,May,1
451,May,1
452,May,1
453,May,1
454,May,1
455,May,1
456,May,1
457,May,1
458,May,1
459,May,1
460,May,1
461,May,1
462,May,1
463,May,1
464,May,1
465,May,1
466,May,1
467,May,1
468,May,1
469,May,1
470,May,1
471,May,1
472,May,1
473,May,1
474,May,1
475,May,1
476,May,1
477,May,1
478,May,1
479,May,1
480,May,0
481,May,1
482,May,1
483,May,1
484,May,1
485,May,1
486,May,0
487,May,1
488,May,1
489,May,1
490,May,0
491,May,1
492,May,1
493,May,1
494,May,1
495,May,1
496,May,1
497,May,1
498,May,1
499,May,1
500,May,1
501,May,1
502,May,0
503,May,1
504,May,1
505,May,1
506,May,1
507,May,1
508,May,1
509,May,0
510,May,1
511,May,1
512,May,1
513,May,1
514,May,1
515,May,0
516,May,1
517,May,1
518,May,1
519,May,1
520,May,0
521,May,1
522,May,1
523,May,1
524,May,1
525,May,1
526,May,1
527,May,0
528,May,1
529,May,0
530,May,1
531,May,1
533,May,1
534,May,1
535,May,0
536,May,1
537,May,1
538,May,1
539,May,1
540,May,0
541,May,1
542,May,1
543,May,1
544,May,1
545,May,1
546,May,1
547,May,1
548,May,0
549,May,1
550,May,1
551,May,1
552,May,1
553,May,1
554,May,1
555,May,1
556,May,1
557,May,1
558,May,1
559,May,1
560,May,0
561,May,0
562,May,0
563,May,1
564,May,1
565,May,1
566,May,1
567,May,0
568,May,1
569,May,1
570,May,1
571,May,0
572,May,1
573,May,1
574,May,1
575,May,1
576,May,1
577,May,1
578,May,1
579,May,1
580,May,1
581,May,1
582,May,1
583,May,1
584,May,0
585,May,1
586,May,1
587,May,1
588,May,1
589,May,1
590,May,1
591,May,1
592,May,1
593,May,1
594,May,1
595,May,1
596,May,0
597,May,1
598,May,1
599,May,1
600,May,1
601,May,1
602,May,1
603,May,1
604,May,1
605,May,0
606,May,1
607,May,1
608,May,1
609,May,1
610,May,0
611,May,1
612,May,1
613,May,1
614,May,1
615,May,0
616,May,0
617,May,1
618,May,0
619,May,0
620,May,1
621,May,0
622,May,1
623,May,1
624,May,1
625,May,1
626,May,1
627,May,1
628,May,1
629,May,1
630,May,1
631,May,1
632,May,1
633,May,1
634,May,1
635,May,0
636,May,0
637,May,0
638,May,1
639,May,1
641,May,1
642,May,1
643,May,1
644,May,0
645,May,1
646,May,0
647,May,1
648,May,1
649,May,0
650,May,0
651,May,0
653,May,0
654,May,1
655,May,0
656,May,1
657,May,1
658,May,1
659,May,1
660,May,1
661,May,1
662,May,1
663,May,1
664,May,1
665,May,1
666,May,1
667,May,0
668,May,1
669,May,1
670,May,1
671,May,1
672,May,1
673,May,1
675,May,1
677,May,1
678,May,1
679,May,0
680,May,1
682,May,0
683,May,0
684,May,0
686,May,1
687,May,1
688,May,1
689,May,1
691,May,0
693,May,0
695,May,1
696,May,1
698,May,1
699,May,0
700,May,0
701,May,0
702,May,1
704,May,0
705,May,1
706,May,1
708,May,0
709,May,0
712,May,1
715,May,1
716,May,1
717,May,1
718,May,0
719,May,1
720,May,0
722,May,0
723,May,0
724,May,0
725,May,1
726,May,1
728,May,1
729,May,0
730,May,1
731,May,1
732,May,1
733,May,1
734,May,1
735,May,0
736,May,1
737,May,1
738,May,1
739,May,0
740,May,0
741,May,0
742,May,0
743,May,0
744,May,0
745,May,0
746,May,0
749,May,0
750,May,0
2501,May,1
2502,May,1
2503,May,1
2504,May,1
2505,May,0
3002,May,0
3004,May,0
3006,May,0
3016,May,0
3017,May,0
3030,May,0
3079,May,0
3100,May,0
3206,May,0
3265,May,0
3281,May,0
3293,May,0
3355,May,0
3362,May,0
3404,May,0
8001,May,1
8002,May,0
4490,May,1
5990,May,1
5001,May,1
5002,May,1
5003,May,0
5004,May,0
5005,May,0
5006,May,1
5007,May,1
5008,May,0
5009,May,1
5010,May,0
5011,May,1
5012,May,0
5013,May,0
5014,May,0
5015,May,0
5016,May,0
5017,May,1
5018,May,0
5019,May,0
5020,May,1
5021,May,1
5022,May,1
5023,May,0
5024,May,0
5025,May,1
5026,May,1
5027,May,1
5028,May,0
5029,May,1
5030,May,1
5031,May,1
5032,May,1
5033,May,1
5034,May,1
5035,May,1
5036,May,0
5037,May,1
5038,May,1
5040,May,1
5041,May,0
5042,May,1
5043,May,0
5044,May,1
5045,May,1
5046,May,1
5047,May,1
5048,May,1
5049,May,1
5050,May,1
5051,May,1
5052,May,1
5053,May,1
5054,May,1
5055,May,0
5056,May,1
5057,May,1
5058,May,1
5059,May,1
5060,May,1
5061,May,1
5062,May,1
5063,May,1
5064,May,1
5065,May,1
5066,May,1
5067,May,1
5068,May,1
5069,May,1
5070,May,1
5072,May,1
5073,May,1
5074,May,1
5076,May,1
5077,May,0
5078,May,1
5079,May,0
5080,May,1
5081,May,1
5082,May,1
5083,May,1
5084,May,0
5085,May,0
5086,May,1
5087,May,1
5088,May,0
5089,May,1
5090,May,0
5091,May,1
5092,May,1
5093,May,0
5094,May,1
5095,May,1
5096,May,0
5097,May,1
5098,May,1
5099,May,1
5100,May,1
5101,May,1
5102,May,1
5103,May,0
5104,May,1
5105,May,1
5106,May,1
5107,May,0
5108,May,1
5109,May,1
5110,May,1
5112,May,1
5113,May,0
5114,May,0
5115,May,0
5116,May,0
5117,May,1
5118,May,1
5119,May,1
5120,May,0
5121,May,1
5123,May,0
5124,May,1
5125,May,1
5126,May,0
5127,May,1
5128,May,0
5129,May,1
5130,May,1
5132,May,0
5133,May,1
5134,May,1
5135,May,1
5136,May,1
5138,May,1
5139,May,1
5140,May,1
5145,May,1
5147,May,1
5151,May,0
5153,May,1
5154,May,0
5156,May,0
5157,May,1
5158,May,1
5159,May,0
5160,May,1
5161,May,1
5162,May,1
5163,May,0
5165,May,1
5166,May,0
5167,May,1
5168,May,1
5169,May,1
5171,May,1
5173,May,0
5174,May,1
5175,May,1
5176,May,1
5177,May,1
5178,May,0
5179,May,0
5181,May,1
5182,May,1
5183,May,0
5187,May,1
5192,May,1
5194,May,1
5195,May,1
5196,May,1
5197,May,1
5198,May,1
5199,May,1
5200,May,1
5201,May,1
5202,May,1
5203,May,1
5204,May,1
5205,May,1
5206,May,1
5208,May,0
5209,May,0
5210,May,0
5211,May,0
5212,May,0
5213,May,0
5214,May,0
5215,May,0
5216,May,0
5217,May,0
5218,May,0
5219,May,0
5220,May,0
5221,May,0
5223,May,0
5224,May,1
5225,May,0
5226,May,0
5227,May,0
5229,May,0
5230,May,0
5231,May,0
5232,May,0
5233,May,0
5234,May,0
5235,May,0
5237,May,0
5238,May,0
5239,May,0
5240,May,0
5241,May,0
5242,May,0
5243,May,0
5244,May,0
5245,May,0
5246,May,0
5248,May,0
5251,May,0
5252,May,0
5253,May,0
5254,May,0
5255,May,0
5256,May,0
5257,May,0
5258,May,0
5259,May,0
5260,May,0
5261,May,0
5262,May,0
5264,May,0
5265,May,0
5266,May,0
5267,May,0
5269,May,0
5270,May,0
5271,May,0
5274,May,0
5276,May,0
5277,May,0
5278,May,0
5280,May,0
5284,May,0
5285,May,0
5287,May,0
5289,May,0
5293,May,0
5294,May,0
5900,May,0
